{
	"em_lid" : 1,
	"bu_lids" : [34,35,36,32,30,33,31,29,28,26,27,25,23,22,21,24,7,2,20,19,6,4,3,9,5,8,10,17,12,11,13,18,14,15,16,71,77,73,75,70,76,79,72,78,81,74,80,54,53,37,38,56,55,40,39,58,57,41,66,63,42,43,61],
	"ru_lids" : [34,35,36,32,30,33,31,29,28,26,27,25,23,22,21,24,7,2,20,19,6,4,3,9,5,8,10,17,12,11,13,18,14,15,16,71,77,73,75,70,76,79,72,78,81,74,80,54,53,37,38,56,55,40,39,58,57,41,66,63,42,43,61]
}

