{
    "node_lids": {
        "0": {
            "host_name": 22,
            "lid": 62
        },
        "1": {
            "host_name": 18,
            "lid": 2
        },
        "2": {
            "host_name": 24,
            "lid": 25
        },
        "3": {
            "host_name": 23,
            "lid": 42
        },
        "4": {
            "host_name": 26,
            "lid": 28
        },
        "5": {
            "host_name": 21,
            "lid": 75
        },
        "6": {
            "host_name": 17,
            "lid": 20
        },
        "7": {
            "host_name": 27,
            "lid": 60
        },
        "8": {
            "host_name": 25,
            "lid": 18
        },
        "9": {
            "host_name": 28,
            "lid": 14
        },
        "10": {
            "host_name": 31,
            "lid": 48
        },
        "11": {
            "host_name": 30,
            "lid": 64
        },
        "12": {
            "host_name": 32,
            "lid": 87
        },
        "13": {
            "host_name": 34,
            "lid": 59
        },
        "14": {
            "host_name": 35,
            "lid": 61
        },
        "15": {
            "host_name": 36,
            "lid": 23
        },
        "16": {
            "host_name": 29,
            "lid": 9
        },
        "17": {
            "host_name": 33,
            "lid": 15
        },
        "18": {
            "host_name": 20,
            "lid": 52
        },
        "19": {
            "host_name": 19,
            "lid": 13
        },
        "20": {
            "host_name": 15,
            "lid": 22
        },
        "21": {
            "host_name": 14,
            "lid": 37
        },
        "22": {
            "host_name": 13,
            "lid": 43
        },
        "23": {
            "host_name": 16,
            "lid": 89
        },
        "24": {
            "host_name": 12,
            "lid": 36
        },
        "25": {
            "host_name": 10,
            "lid": 41
        },
        "26": {
            "host_name": 11,
            "lid": 39
        },
        "27": {
            "host_name": 9,
            "lid": 33
        },
        "28": {
            "host_name": 8,
            "lid": 34
        },
        "29": {
            "host_name": 5,
            "lid": 3
        },
        "30": {
            "host_name": 7,
            "lid": 40
        },
        "31": {
            "host_name": 4,
            "lid": 38
        },
        "32": {
            "host_name": 6,
            "lid": 31
        },
        "33": {
            "host_name": 1,
            "lid": 74
        },
        "34": {
            "host_name": 2,
            "lid": 47
        },
        "35": {
            "host_name": 3,
            "lid": 35
        },
        "36": {
            "host_name": 51,
            "lid": 27
        },
        "37": {
            "host_name": 52,
            "lid": 24
        },
        "38": {
            "host_name": 56,
            "lid": 51
        },
        "39": {
            "host_name": 55,
            "lid": 68
        },
        "40": {
            "host_name": 60,
            "lid": 107
        },
        "41": {
            "host_name": 63,
            "lid": 110
        },
        "42": {
            "host_name": 64,
            "lid": 106
        },
        "43": {
            "host_name": 68,
            "lid": 109
        },
        "44": {
            "host_name": 83,
            "lid": 32
        },
        "45": {
            "host_name": 84,
            "lid": 124
        },
        "46": {
            "host_name": 75,
            "lid": 121
        },
        "47": {
            "host_name": 79,
            "lid": 119
        },
        "48": {
            "host_name": 72,
            "lid": 123
        },
        "49": {
            "host_name": 76,
            "lid": 114
        },
        "50": {
            "host_name": 80,
            "lid": 118
        },
        "51": {
            "host_name": 71,
            "lid": 122
        },
        "52": {
            "host_name": 50,
            "lid": 66
        },
        "53": {
            "host_name": 49,
            "lid": 21
        },
        "54": {
            "host_name": 54,
            "lid": 56
        },
        "55": {
            "host_name": 53,
            "lid": 26
        },
        "56": {
            "host_name": 58,
            "lid": 101
        },
        "57": {
            "host_name": 57,
            "lid": 100
        },
        "58": {
            "host_name": 70,
            "lid": 112
        },
        "59": {
            "host_name": 66,
            "lid": 104
        },
        "60": {
            "host_name": 65,
            "lid": 103
        },
        "61": {
            "host_name": 69,
            "lid": 113
        },
        "62": {
            "host_name": 62,
            "lid": 102
        },
        "63": {
            "host_name": 78,
            "lid": 116
        },
        "64": {
            "host_name": 77,
            "lid": 120
        },
        "65": {
            "host_name": 61,
            "lid": 108
        },
        "66": {
            "host_name": 74,
            "lid": 115
        },
        "67": {
            "host_name": 73,
            "lid": 117
        },
        "68": {
            "host_name": 82,
            "lid": 125
        },
        "69": {
            "host_name": 41,
            "lid": 11
        },
        "70": {
            "host_name": 37,
            "lid": 53
        },
        "71": {
            "host_name": 44,
            "lid": 46
        },
        "72": {
            "host_name": 39,
            "lid": 58
        },
        "73": {
            "host_name": 47,
            "lid": 19
        },
        "74": {
            "host_name": 40,
            "lid": 67
        },
        "75": {
            "host_name": 42,
            "lid": 65
        },
        "76": {
            "host_name": 38,
            "lid": 17
        },
        "77": {
            "host_name": 45,
            "lid": 50
        },
        "78": {
            "host_name": 43,
            "lid": 63
        },
        "79": {
            "host_name": 48,
            "lid": 6
        },
        "80": {
            "host_name": 46,
            "lid": 12
        }
    },
    "switch_lids": {
        "0": {
            "lid": 78
        },
        "1": {
            "lid": 91
        },
        "10": {
            "lid": 1
        },
        "2": {
            "lid": 10
        },
        "3": {
            "lid": 29
        },
        "4": {
            "lid": 45
        },
        "5": {
            "lid": 44
        },
        "6": {
            "lid": 95
        },
        "7": {
            "lid": 7
        },
        "8": {
            "lid": 5
        },
        "9": {
            "lid": 4
        }
    }
}
